,PC1,PC2,PC3,Design
GSM2795140,-65.6926544127029,10.6165361509718,12.1607244344657,Control
GSM2795141,-73.8051765491427,4.50590121010226,7.43623943793088,Control
GSM2795142,-68.4029775460539,5.5407038577004,11.4050652082029,Control
GSM2795143,-68.3506251870712,4.71406882958833,9.07127402969872,Control
GSM2795144,17.174881131727,-46.9730597296717,3.44121037948734,Moderate_Subacute
GSM2795145,45.0887550705858,-30.1857553151307,16.0842562271032,Moderate_Subacute
GSM2795146,73.0044981415503,8.89678927922769,48.604195780232,Moderate_Subacute
GSM2795147,29.7550913860005,-53.9455110454725,-5.10077951418328,Moderate_Subacute
GSM2795152,7.05176666500334,-0.594234114119036,-37.4460439521885,Moderate_Acute
GSM2795153,37.6717779711883,32.7783080201182,-16.489379567727,Moderate_Acute
GSM2795154,54.4804081382906,67.0501283582244,1.02311161740025,Moderate_Acute
GSM2795155,12.0242551906251,-2.40387550153892,-50.1898740804228,Moderate_Acute
