,PC1,PC2,PC3,Design
GSM1136,-1.67274494792307,-17.7981695917741,-6.11009288434863,Moderate_Acute
GSM1137,-22.3952939989758,-11.7950221060552,8.44149225523473,Moderate_Acute
GSM1323,-30.7687443533454,-20.3093021251535,-24.482018396647,Moderate_Acute
GSM1324,-19.6057354466913,-5.88439234600242,-26.2044378500408,Moderate_Acute
GSM1326,-95.3942961697706,15.8027920084397,39.1303065629896,Moderate_Subacute
GSM1327,-73.2390263653187,5.96845274686846,28.8547014533245,Moderate_Subacute
GSM1328,-15.326826418463,-5.73861874014368,16.5586103771639,Moderate_Subacute
GSM1329,-10.3181124939128,-11.8040533753095,4.4641196465272,Moderate_Subacute
GSM1330,-28.6688744868846,-14.8792155744584,-24.0755442841094,Control
GSM1332,-35.7156332163181,0.204923357295145,-18.3917411059733,Control
GSM1333,-15.6669201829772,-11.3313297737461,-29.5751514226356,Control
GSM1334,-18.1260835503131,1.75966482194488,-27.4380202034546,Control
GSM1335,-25.5693479938012,-1.94332095897497,-22.4533498825395,Control
GSM1336,-7.40906845053351,-7.21724438638842,-32.2341087685471,Control
GSM4418,-22.2273702526756,-6.39749120843545,-26.7448122932119,Moderate_Acute
GSM4419,-41.6374146107074,-20.9541605615241,-21.3095093651738,Moderate_Acute
GSM4420,-29.9779110982881,-20.990945327325,-21.3459448081522,Moderate_Acute
GSM4421,-19.1654535622173,-15.1654398768713,-24.5683910131502,Moderate_Acute
GSM4422,-37.2814909914622,-21.1163512791978,-25.71128213514,Moderate_Acute
GSM4477,-27.7299059683522,-14.8056186775451,2.82447001936327,Moderate_Acute
GSM7566,-25.2827603391972,-5.00835679996425,18.4453876188185,Severe_Acute
GSM7569,-36.7084642026858,-8.27396814499167,10.8299813630415,Severe_Acute
GSM7572,-41.5074650913403,18.2699390733166,22.7249574416198,Severe_Acute
GSM7575,-45.4038091263824,-1.13342047046207,13.0219826554451,Severe_Acute
GSM7578,-25.7181031572149,-0.389862725522411,-12.9318766875328,Severe_Acute
GSM7581,-7.16757835209948,-2.61594975222987,-21.982864401383,Severe_Acute
GSM7584,-21.2216552092095,42.5329932352467,-11.3839191014824,Severe_Acute
GSM7587,-40.3315543553104,-8.19152245635443,-20.0401638932526,Severe_Acute
GSM7590,3.61434659898562,10.4354861346971,39.55810922479,Severe_Subacute
GSM7593,-8.35871807263345,5.10636512231499,29.2350714355135,Severe_Subacute
GSM7596,-15.8076145893791,-0.833426109928729,40.6623431999223,Severe_Subacute
GSM7599,-11.6273877863451,-5.84022455324211,36.6391631713389,Severe_Subacute
GSM31194,-7.18926354250419,-17.2442398747903,36.6255073055699,Moderate_Acute
GSM31196,30.3498775532535,102.668877582506,9.16759447882498,Moderate_Subacute
GSM31197,9.74065019034489,30.1496585116632,12.462907100985,Moderate_Subacute
GSM31205,-87.0668891057732,11.8927425394079,27.8342807218069,Moderate_Acute
GSM31225,2.11614791322323,7.40230193837521,7.28880607731463,Moderate_Early chronic
GSM31226,10.036613931862,15.2828857461197,10.0227034557133,Moderate_Early chronic
GSM31229,-15.3606615021879,13.4801660727142,8.21285004848166,Moderate_Early chronic
GSM31230,-20.6538359592625,-12.84419119277,-31.0118223534429,Moderate_Acute
GSM31250,0.787146480203507,17.8961283580402,-20.681894265603,Control
GSM31253,20.8905919308469,100.562536768928,-17.9718473157943,Control
GSM31254,-38.7186118043103,-10.7185449034289,-25.9068731199839,Control
GSM31258,3.01950158194936,72.5768058518189,-23.1631159658021,Control
GSM31263,-16.2655021790368,4.31992693940661,-24.8648043942582,Control
GSM31264,-58.3018883696641,89.2786569835576,-4.67061067017609,Control
GSM31267,8.73234411897196,-19.7111893200529,-35.2153121723518,Control
GSM31268,23.4866587959957,-13.6731270926997,-30.6541937328187,Control
GSM31269,0.0719032450950307,3.06738782000879,-29.984052507097,Control
GSM31270,-27.5513636967425,-14.585493944538,-28.3388885163415,Control
GSM31299,16.2337731695451,91.6016481263448,12.3755476300952,Moderate_Subacute
GSM31509,18.9390083555511,-20.6184304045076,-36.3389579343321,Control
GSM31513,44.7882571878782,-27.5055925888112,-14.7412465016382,Moderate_Subacute
GSM31515,35.1320294006443,-14.2909027488903,-24.9500381195546,Moderate_Subacute
GSM31521,29.5316205610217,-23.8973354473427,-25.0447512655925,Moderate_Subacute
GSM31522,17.4421869238051,-25.8421194842661,-23.6909735196945,Moderate_Subacute
GSM31524,49.3226179484644,-12.3915789745279,-4.45970127557983,Moderate_Early chronic
GSM31525,168.718308830875,25.7126509397034,-64.9081660057229,Moderate_Early chronic
GSM31533,-2.14512654945282,-22.2647080388776,-3.41105114934115,Moderate_Acute
GSM31536,11.8437006713476,-19.7922953183798,6.00229240008512,Moderate_Acute
GSM31538,13.8114968287579,-2.66880221239728,15.643817164088,Moderate_Early chronic
GSM31539,37.376219657711,2.39527520953587,15.1824348607363,Moderate_Early chronic
GSM31541,41.2305649846657,-8.08206531876745,14.4471096351272,Moderate_Early chronic
GSM31542,37.7501330012051,-5.54246382042155,3.27107452718168,Moderate_Early chronic
GSM31550,43.657333994916,-23.9864408575742,28.9173237066087,Moderate_Subacute
GSM31551,41.9079230089269,-24.318387941289,26.3850984819509,Moderate_Subacute
GSM31557,29.2888668480279,-32.0099932324336,27.7494481332119,Moderate_Subacute
GSM31558,-44.4005067681514,-5.28326464699592,-17.9640839595587,Moderate_Acute
GSM31561,47.801471585662,-13.6426727185827,32.8331647877705,Moderate_Subacute
GSM31563,-45.8566998030802,12.3325964757684,-10.7050403372148,Moderate_Acute
GSM31568,-39.8740910875243,-1.19012205313539,-16.766409895449,Moderate_Acute
GSM31572,7.15789029269976,-1.96510293557346,-22.5195093580155,Moderate_Acute
GSM31574,-20.6820375765926,-22.0960120178599,35.6625528280781,Moderate_Acute
GSM31577,-3.42334678856579,-21.3678830772104,35.0332251772422,Moderate_Acute
GSM31580,16.1805175505517,-22.2448983278686,25.4258996846802,Moderate_Acute
GSM31582,5.56604046887338,-18.8176606725165,25.5935485514261,Moderate_Subacute
GSM31584,55.3550669788068,-1.95325274415001,24.6555900661281,Moderate_Subacute
GSM31595,19.8790329801885,-3.82412275385935,29.0251137157866,Moderate_Subacute
GSM31597,40.6603425825418,-6.2381016283097,33.1356006287584,Moderate_Subacute
GSM31598,45.4888383523866,2.11312318316896,23.4813760819831,Severe_Subacute
GSM31599,45.432217949998,-3.95902327934982,22.2270416568147,Severe_Subacute
GSM31603,48.0506838457113,4.08175955276097,9.0061632661831,Severe_Early chronic
GSM31604,72.2783482141507,9.68785187615758,9.42743400327241,Severe_Early chronic
GSM31610,58.0820738224673,15.9035142668269,8.33276708875616,Severe_Early chronic
GSM31611,27.1577671691472,2.34498775063903,10.9628114866407,Severe_Early chronic
GSM31616,35.840708597933,-11.7298566452047,25.1311332262399,Severe_Subacute
GSM31665,-32.8842793151009,5.66649813795519,12.8708100976172,Moderate_Acute
GSM31666,42.6546447834857,-13.7813139925486,-0.837151668113546,Moderate_Acute
